<?xml version="1.0" encoding="utf-8"?>
<!-- Generator: Adobe Illustrator 21.0.1, SVG Export Plug-In . SVG Version: 6.00 Build 0)  -->
<svg version="1.1" id="Ebene_1" xmlns="http://www.w3.org/2000/svg" xmlns:xlink="http://www.w3.org/1999/xlink" x="0px" y="0px"
	 viewBox="0 0 80 81" style="enable-background:new 0 0 80 81;" xml:space="preserve">
<style type="text/css">
	.st0{fill:#FFFFFF;}
	.st1{fill:#135D98;}
</style>
<title>Page 1</title>
<g id="Screendesigns">
	<g id="LG---Startseite-Copy" transform="translate(-938 -890)">
		<g id="versprechen" transform="translate(207 800)">
			<g id="_x33_" transform="translate(731 90)">
				<g id="Page-1">
					<path id="Fill-1" class="st0" d="M39.8,4C20,4,3.9,20.3,3.9,40.3c0,20.1,16.1,36.4,35.9,36.4s35.9-16.3,35.9-36.4
						C75.8,20.3,59.7,4,39.8,4 M39.8,80.7C17.9,80.7,0,62.6,0,40.3C0,18.1,17.9,0,39.8,0s39.8,18.1,39.8,40.3
						C79.7,62.6,61.8,80.7,39.8,80.7"/>
					<path id="Fill-3" class="st1" d="M56.2,56.8c-1.5,0-2.7-1.2-2.7-2.7s1.2-2.7,2.7-2.7c1.4,0,2.6,1.2,2.6,2.7
						S57.7,56.8,56.2,56.8 M56.2,49.4c-1.3,0-2.5,0.5-3.4,1.4c-0.9,0.9-1.4,2.1-1.4,3.4c0,1.3,0.5,2.5,1.4,3.4
						c0.9,0.9,2.1,1.4,3.4,1.4c2.6,0,4.7-2.2,4.7-4.8C60.9,51.5,58.8,49.4,56.2,49.4"/>
					<path id="Fill-5" class="st1" d="M58.9,41.9h-6.5v-6.6h3.9l2.5,2.3C58.9,37.5,58.9,41.9,58.9,41.9z M57.5,33.4
						c-0.2-0.2-0.4-0.3-0.7-0.3h-5.4c-0.6,0-1.1,0.5-1.1,1.1v8.7c0,0.6,0.5,1.1,1,1.1h8.6c0.6,0,1.1-0.5,1.1-1.1v-5.8
						c0-0.3-0.1-0.6-0.3-0.8C60.6,36.3,57.5,33.4,57.5,33.4z"/>
					<path id="Fill-7" class="st1" d="M30.6,56.8c-1.5,0-2.7-1.2-2.7-2.7s1.2-2.7,2.7-2.7c1.4,0,2.6,1.2,2.6,2.7S32,56.8,30.6,56.8
						 M30.6,49.4c-1.3,0-2.5,0.5-3.4,1.4c-0.9,0.9-1.4,2.1-1.4,3.4c0,1.3,0.5,2.5,1.4,3.4c0.9,0.9,2.1,1.4,3.4,1.4
						c2.6,0,4.7-2.2,4.7-4.8C35.3,51.5,33.2,49.4,30.6,49.4"/>
					<path id="Fill-9" class="st1" d="M23.6,50.7h-2.1v-2.8c0-0.6-0.5-1.1-1.1-1.1c-0.6,0-1.1,0.5-1.1,1.1v3.9
						c0,0.6,0.5,1.1,1.1,1.1h3.2c0.6,0,1.1-0.5,1.1-1.1C24.6,51.1,24.1,50.7,23.6,50.7"/>
					<path id="Fill-11" class="st1" d="M28.9,44.9c0-0.6-0.5-1.1-1-1.1H15.1c-0.6,0-1.1,0.5-1.1,1.1c0,0.6,0.5,1.1,1.1,1.1h12.7
						C28.4,45.9,28.9,45.5,28.9,44.9"/>
					<path id="Fill-13" class="st1" d="M17.2,41L30,41.1c0.6,0,1.1-0.5,1.1-1.1c0-0.6-0.4-1.1-1-1.1c0,0,0,0,0,0l-12.8-0.1h0
						c-0.6,0-1,0.5-1,1.1C16.2,40.5,16.6,41,17.2,41C17.2,41,17.2,41,17.2,41"/>
					<path id="Fill-15" class="st1" d="M19.4,36.2h12.7c0.6,0,1.1-0.5,1.1-1.1c0-0.6-0.5-1.1-1-1.1H19.4c-0.6,0-1.1,0.5-1.1,1.1
						C18.3,35.7,18.8,36.2,19.4,36.2"/>
					<path id="Fill-17" class="st1" d="M65.3,34.8l-7.5-6.3c-0.2-0.2-0.4-0.2-0.7-0.2h-8.9v-3.8c0-0.6-0.5-1.1-1-1.1H20.4
						c-0.6,0-1,0.5-1,1.1v7.8c0,0.6,0.5,1.1,1,1.1c0.6,0,1.1-0.5,1.1-1.1v-6.7h24.7v25.2h-8.6c-0.6,0-1.1,0.5-1.1,1.1
						c0,0.6,0.5,1.1,1.1,1.1h12.8c0.6,0,1.1-0.5,1.1-1.1s-0.5-1.1-1.1-1.1h-2.1V30.3h8.5l6.9,5.7l-0.1,14.6h-1.1
						c-0.6,0-1.1,0.5-1.1,1.1c0,0.6,0.5,1.1,1.1,1.1h2.1c0.6,0,1.1-0.5,1.1-1.1l0.1-16.1C65.6,35.3,65.5,35,65.3,34.8"/>
				</g>
			</g>
		</g>
	</g>
</g>
</svg>
